[
  {
    "id" : 1,
    "first_name" : "John",
    "lastName" : "Smith",
    "email" : "john@gmail.com"
  }
  ,
  {
    "id" : 2,
    "first_name" : "Ron",
    "lastName" : "Weasley",
    "email" : "ron@gmail.com"
  },
  {
    "id" : 3,
    "first_name" : "Harry",
    "lastName" : "Potter",
    "email" : "potter@gmail.com"
  },
  {
    "id" : 4,
    "first_name" : "Hermoine",
    "lastName" : "Granger",
    "email" : "granger@gmail.com"
  },
  {
    "id" : 5,
    "first_name" : "George",
    "lastName" : "Weasley",
    "email" : "george.weasley@gmail.com"
  },
  {
    "id" : 6,
    "first_name" : "Fred",
    "lastName" : "Weasley",
    "email" : "fred.weasley@gmail.com"
  },
  {
    "id" : 7,
    "first_name" : "Ginny",
    "lastName" : "Weasley",
    "email" : "ginny.weasley@gmail.com"
  },
  {
    "id" : 8,
    "first_name" : "Draco",
    "lastName" : "Malfoy",
    "email" : "malfoy.draco@gmail.com"
  },
  {
    "id" : 9,
    "first_name" : "Neville",
    "lastName" : "Longbottom",
    "email" : "neville.longbottom@gmail.com"
  },
  {
    "id" : 10,
    "first_name" : "Luna",
    "lastName" : "Lovegood",
    "email" : "luna.lovegood@gmail.com"
  }
]